<?xml version="1.0" encoding="utf-8"?>
<!-- Generator: Adobe Illustrator 25.2.0, SVG Export Plug-In . SVG Version: 6.00 Build 0)  -->
<svg version="1.1" id="Слой_1" xmlns="http://www.w3.org/2000/svg" xmlns:xlink="http://www.w3.org/1999/xlink" x="0px" y="0px"
	 viewBox="0 0 25 25" style="enable-background:new 0 0 25 25;" xml:space="preserve">
<style type="text/css">
	.st0{fill:#999999;}
</style>
<g>
	<path class="st0" d="M10.1,12.5c0,1.3,1.1,2.4,2.4,2.4s2.4-1.1,2.4-2.4s-1.1-2.4-2.4-2.4S10.1,11.2,10.1,12.5z"/>
	<path class="st0" d="M6.9,8.3C7,8,7.2,7.7,7.4,7.4C7.7,7.2,8,7,8.3,6.9c0.3-0.1,0.6-0.2,1.3-0.2c0.8,0,1,0,2.9,0c1.9,0,2.1,0,2.9,0
		c0.7,0,1.1,0.1,1.3,0.2C17,7,17.3,7.2,17.6,7.4C17.8,7.7,18,8,18.1,8.3c0.1,0.3,0.2,0.6,0.2,1.3c0,0.8,0,1,0,2.9c0,1.9,0,2.1,0,2.9
		c0,0.7-0.1,1.1-0.2,1.3c-0.1,0.3-0.3,0.6-0.5,0.8c-0.2,0.2-0.5,0.4-0.8,0.5c-0.3,0.1-0.6,0.2-1.3,0.2c-0.8,0-1,0-2.9,0
		c-1.9,0-2.1,0-2.9,0c-0.7,0-1.1-0.1-1.3-0.2c-0.6-0.2-1.1-0.7-1.4-1.4c-0.1-0.3-0.2-0.6-0.2-1.3c0-0.8,0-1,0-2.9c0-1.9,0-2.1,0-2.9
		C6.7,8.9,6.8,8.5,6.9,8.3L6.9,8.3z M12.5,16.2c2,0,3.7-1.7,3.7-3.7s-1.7-3.7-3.7-3.7c-2,0-3.7,1.7-3.7,3.7S10.5,16.2,12.5,16.2z
		 M8.7,9.5c0.5,0,0.9-0.4,0.9-0.9c0-0.5-0.4-0.9-0.9-0.9S7.8,8.2,7.8,8.7C7.8,9.1,8.2,9.5,8.7,9.5z"/>
	<path class="st0" d="M12.5,0C19.4,0,25,5.6,25,12.5S19.4,25,12.5,25S0,19.4,0,12.5S5.6,0,12.5,0z M5.4,15.5c0,0.8,0.2,1.3,0.3,1.7
		c0.4,1,1.1,1.7,2.1,2.1c0.5,0.2,1,0.3,1.7,0.3c0.8,0,1,0,3,0c1.9,0,2.2,0,3,0c0.8,0,1.3-0.2,1.7-0.3c0.5-0.2,0.9-0.5,1.3-0.8
		c0.4-0.4,0.6-0.8,0.8-1.3c0.2-0.5,0.3-1,0.3-1.7c0-0.8,0-1,0-3s0-2.2,0-3c0-0.8-0.2-1.3-0.3-1.7c-0.2-0.5-0.5-0.9-0.8-1.3
		c-0.4-0.4-0.8-0.6-1.3-0.8c-0.5-0.2-1-0.3-1.7-0.3c-0.8,0-1,0-3,0s-2.2,0-3,0c-0.8,0-1.3,0.2-1.7,0.3C7.3,5.9,6.9,6.2,6.5,6.5
		C6.2,6.9,5.9,7.3,5.7,7.8c-0.2,0.5-0.3,1-0.3,1.7c0,0.8,0,1,0,3S5.3,14.7,5.4,15.5z"/>
</g>
</svg>
